Neighborhood Analysis - Describing Places
…
Before we do this, let’s take care of one bit of housekeeping. The Urban Institute has coded the designated variable as either taking a value of 1 when designated or NA when not. Let’s recode those NA values to equal 0 instead.

To recode, we need to select those values from the Designated column in the ozs data frame where the value is NA and overwrite them with a new value of 0.

There’s lots of ways we could do this:

Strategy 1 - Conditional Statement

We could use a conditional statement ifelse() to specify that if a value is NA in the Designated column we change it to 0.

Code

ozs |> mutate(Designated = ifelse(is.na(Designated), 0, Designated))

# A tibble: 42,176 × 27
   geoid      state Desig…¹ county Type  dec_s…² SE_Flag Popul…³ medhh…⁴ Pover…⁵
   <chr>      <chr>   <dbl> <chr>  <chr>   <dbl>   <dbl>   <dbl>   <dbl>   <dbl>
 1 010010202… Alab…       0 Autau… Low-…       4      NA    2196   41107  0.240 
 2 010010203… Alab…       0 Autau… Non-…       6      NA    3136   51250  0.107 
 3 010010207… Alab…       1 Autau… Low-…       9      NA    3047   45234  0.190 
 4 010010208… Alab…       0 Autau… Non-…      10      NA   10743   61242  0.153 
 5 010010210… Alab…       0 Autau… Non-…       5      NA    2899   49567  0.151 
 6 010010211… Alab…       0 Autau… Low-…       6      NA    3247   40801  0.194 
 7 010030101… Alab…       0 Baldw… Non-…       6      NA    4013   45667  0.140 
 8 010030102… Alab…       1 Baldw… Low-…       9      NA    3067   33333  0.272 
 9 010030103… Alab…       0 Baldw… Non-…      10      NA    8079   47443  0.0684
10 010030104… Alab…       1 Baldw… Non-…       9      NA    4578   46696  0.148 
# … with 42,166 more rows, 17 more variables: unemprate <dbl>, medvalue <dbl>,
#   medrent <dbl>, pctown <dbl>, severerentburden <dbl>, vacancyrate <dbl>,
#   pctwhitealone <dbl>, pctblackalone <dbl>, pctHispanic <dbl>,
#   pctAAPIalone <dbl>, pctunder18 <dbl>, pctover64 <dbl>, HSorlower <dbl>,
#   BAorhigher <dbl>, Metro <dbl>, Micro <dbl>, NoCBSAType <dbl>, and
#   abbreviated variable names ¹​Designated, ²​dec_score, ³​Population,
#   ⁴​medhhincome2014_tract, ⁵​PovertyRate

In dplyr syntax, what we said here was with reference to the ozs dataset ozs |> let’s alter the dataset mutate(). Let’s alter the column named Designated mutate(Designated = ). Let’s alter the column named Designated conditionally mutate(Designated = ifelse()). If the value of Designated is equal to NA, replace it with 0, otherwise keep the value present in the Designated observation mutate(Designated = ifelse(is.na(Designated), 0, Designated)).

Looking at this ifelse() statement, you might have been tempted to write something like Designated ==NA`which will not work.is.na()is the proper logical test to return whether a value is or is notNA`.

Strategy 2: Use a Specialized Command

We could use a specialized command such as replace_na() from the tidyr package to replace our NA values:

Code

ozs |> mutate(Designated = replace_na(Designated, 0))

# A tibble: 42,176 × 27
   geoid      state Desig…¹ county Type  dec_s…² SE_Flag Popul…³ medhh…⁴ Pover…⁵
   <chr>      <chr>   <dbl> <chr>  <chr>   <dbl>   <dbl>   <dbl>   <dbl>   <dbl>
 1 010010202… Alab…       0 Autau… Low-…       4      NA    2196   41107  0.240 
 2 010010203… Alab…       0 Autau… Non-…       6      NA    3136   51250  0.107 
 3 010010207… Alab…       1 Autau… Low-…       9      NA    3047   45234  0.190 
 4 010010208… Alab…       0 Autau… Non-…      10      NA   10743   61242  0.153 
 5 010010210… Alab…       0 Autau… Non-…       5      NA    2899   49567  0.151 
 6 010010211… Alab…       0 Autau… Low-…       6      NA    3247   40801  0.194 
 7 010030101… Alab…       0 Baldw… Non-…       6      NA    4013   45667  0.140 
 8 010030102… Alab…       1 Baldw… Low-…       9      NA    3067   33333  0.272 
 9 010030103… Alab…       0 Baldw… Non-…      10      NA    8079   47443  0.0684
10 010030104… Alab…       1 Baldw… Non-…       9      NA    4578   46696  0.148 
# … with 42,166 more rows, 17 more variables: unemprate <dbl>, medvalue <dbl>,
#   medrent <dbl>, pctown <dbl>, severerentburden <dbl>, vacancyrate <dbl>,
#   pctwhitealone <dbl>, pctblackalone <dbl>, pctHispanic <dbl>,
#   pctAAPIalone <dbl>, pctunder18 <dbl>, pctover64 <dbl>, HSorlower <dbl>,
#   BAorhigher <dbl>, Metro <dbl>, Micro <dbl>, NoCBSAType <dbl>, and
#   abbreviated variable names ¹​Designated, ²​dec_score, ³​Population,
#   ⁴​medhhincome2014_tract, ⁵​PovertyRate
Note that in replace_na() we are specifying the column we want to replace the NA value in as well as the value we want to replace NA with.

Strategy 3: Recode and Change Format

Depending upon what we wanted to do with our Designated labels, we could simultaneously deal with recoding our NA values and relabeling the values for legibility. case_when() is useful for these more complex operations:

Code

ozs |> mutate(
  Designated = case_when(
    Designated == 1 ~"Designated",
    is.na(Designated) ~"Not Designated"
))

# A tibble: 42,176 × 27
   geoid      state Desig…¹ county Type  dec_s…² SE_Flag Popul…³ medhh…⁴ Pover…⁵
   <chr>      <chr> <chr>   <chr>  <chr>   <dbl>   <dbl>   <dbl>   <dbl>   <dbl>
 1 010010202… Alab… Not De… Autau… Low-…       4      NA    2196   41107  0.240 
 2 010010203… Alab… Not De… Autau… Non-…       6      NA    3136   51250  0.107 
 3 010010207… Alab… Design… Autau… Low-…       9      NA    3047   45234  0.190 
 4 010010208… Alab… Not De… Autau… Non-…      10      NA   10743   61242  0.153 
 5 010010210… Alab… Not De… Autau… Non-…       5      NA    2899   49567  0.151 
 6 010010211… Alab… Not De… Autau… Low-…       6      NA    3247   40801  0.194 
 7 010030101… Alab… Not De… Baldw… Non-…       6      NA    4013   45667  0.140 
 8 010030102… Alab… Design… Baldw… Low-…       9      NA    3067   33333  0.272 
 9 010030103… Alab… Not De… Baldw… Non-…      10      NA    8079   47443  0.0684
10 010030104… Alab… Design… Baldw… Non-…       9      NA    4578   46696  0.148 
# … with 42,166 more rows, 17 more variables: unemprate <dbl>, medvalue <dbl>,
#   medrent <dbl>, pctown <dbl>, severerentburden <dbl>, vacancyrate <dbl>,
#   pctwhitealone <dbl>, pctblackalone <dbl>, pctHispanic <dbl>,
#   pctAAPIalone <dbl>, pctunder18 <dbl>, pctover64 <dbl>, HSorlower <dbl>,
#   BAorhigher <dbl>, Metro <dbl>, Micro <dbl>, NoCBSAType <dbl>, and
#   abbreviated variable names ¹​Designated, ²​dec_score, ³​Population,
#   ⁴​medhhincome2014_tract, ⁵​PovertyRate
…
We could easily add other summaries to our summary table for this dataset, or further modify.

Filtering Data

Now that we have some sense for how we might produce basic summaries of our data, how can we query out (filter) observations by row? How, for instance, would you modify the above code to produce the same table for counties in Illinois?

We can use a filter() statement to easily accomplish this. filter() allows us to specify one (or more) criteria for which we want to select rows from a larger dataset.

Let’s take a step back and filter our base dataset to focus on observations in Illinois.

Code

ozs |> filter(state == "Illinois")

# A tibble: 1,659 × 27
   geoid      state Desig…¹ county Type  dec_s…² SE_Flag Popul…³ medhh…⁴ Pover…⁵
   <chr>      <chr> <chr>   <chr>  <chr>   <dbl>   <dbl>   <dbl>   <dbl>   <dbl>
 1 170010002… Illi… Not De… Adams… Non-…       7      NA    1937   41538  0.167 
 2 170010002… Illi… Not De… Adams… Low-…       1      NA    2563   40018  0.171 
 3 170010004… Illi… Not De… Adams… Low-…       1      NA    3403   28819  0.316 
 4 170010005… Illi… Not De… Adams… Low-…       1      NA    2298   32313  0.252 
 5 170010007… Illi… Not De… Adams… Low-…       1      NA    1259   17850  0.369 
 6 170010008… Illi… Design… Adams… Low-…       1      NA    2700   26012  0.344 
 7 170010009… Illi… Not De… Adams… Low-…       5      NA    2671   40475  0.282 
 8 170010101… Illi… Not De… Adams… Non-…       2      NA    4323   50156  0.0800
 9 170010102… Illi… Not De… Adams… Low-…       2      NA    3436   46350  0.107 
10 170010103… Illi… Not De… Adams… Non-…       8      NA    6038   59009  0.0617
# … with 1,649 more rows, 17 more variables: unemprate <dbl>, medvalue <dbl>,
#   medrent <dbl>, pctown <dbl>, severerentburden <dbl>, vacancyrate <dbl>,
#   pctwhitealone <dbl>, pctblackalone <dbl>, pctHispanic <dbl>,
#   pctAAPIalone <dbl>, pctunder18 <dbl>, pctover64 <dbl>, HSorlower <dbl>,
#   BAorhigher <dbl>, Metro <dbl>, Micro <dbl>, NoCBSAType <dbl>, and
#   abbreviated variable names ¹​Designated, ²​dec_score, ³​Population,
#   ⁴​medhhincome2014_tract, ⁵​PovertyRate
…
Ok - but how do we summarise by county? We just need to add that as an additional grouping criteria in our group_by() statement:

Code

ozs |> 
  filter(state == "Illinois") |> 
  group_by(county, Designated) |> 
  summarise(
    Tracts = n(),
    Income = mean(medhhincome2014_tract, na.rm=TRUE))

# A tibble: 181 × 4
# Groups:   county [95]
   county           Designated     Tracts Income
   <chr>            <chr>           <int>  <dbl>
 1 Adams County     Designated          1 26012 
 2 Adams County     Not Designated      9 39614.
 3 Alexander County Designated          1 21500 
 4 Alexander County Not Designated      3 32809 
 5 Bond County      Designated          1 49590 
 6 Bond County      Not Designated      1 52310 
 7 Boone County     Designated          1 40599 
 8 Boone County     Not Designated      2 45742 
 9 Bureau County    Designated          1 48083 
10 Bureau County    Not Designated      3 60339.
# … with 171 more rows
…
The two commands pivot_wider() and pivot_longer() are useful for reshaping our data. pivot_wider() essentially adds columns to a dataset by transitioning content from rows to columns. pivot_longer() does the opposite - it makes a dataset longer by transitioning columns to rows.

In our case, let’s use pivot_wider() to transition our Designated and Not Designated rows into columns.

Code

ozs |> 
  filter(state == "Illinois") |> 
  group_by(county, Designated) |> 
  summarise(
    Tracts = n(),
    Income = mean(medhhincome2014_tract, na.rm=TRUE)) |> pivot_wider(names_from = Designated, values_from = Income)

# A tibble: 172 × 4
# Groups:   county [95]
   county           Tracts Designated `Not Designated`
   <chr>             <int>      <dbl>            <dbl>
 1 Adams County          1      26012              NA 
 2 Adams County          9         NA           39614.
 3 Alexander County      1      21500              NA 
 4 Alexander County      3         NA           32809 
 5 Bond County           1      49590           52310 
 6 Boone County          1      40599              NA 
 7 Boone County          2         NA           45742 
 8 Bureau County         1      48083              NA 
 9 Bureau County         3         NA           60339.
10 Calhoun County        2         NA           55290 
# … with 162 more rows
…
We use names_from to specify the column in our dataset contining row values that we want to become new columns. In this case we’d expect that our Desginated column would result in the creation of two new columns - one where values are Designated and one where values are Not Designated.

We use values_from to specify the column containing the values we want in our new columns, in this case, the average of tract income.

One problem though - our tract count column is still present and these values are not reshaped. To simplify things, let’s just get rid of this count so we can see what things look like:

Code

ozs |> 
  filter(state == "Illinois") |> 
  group_by(county, Designated) |> 
  summarise(
    Income = mean(medhhincome2014_tract, na.rm=TRUE)) |> pivot_wider(names_from = Designated, values_from = Income)

# A tibble: 95 × 3
# Groups:   county [95]
   county           Designated `Not Designated`
   <chr>                 <dbl>            <dbl>
 1 Adams County         26012            39614.
 2 Alexander County     21500            32809 
 3 Bond County          49590            52310 
 4 Boone County         40599            45742 
 5 Bureau County        48083            60339.
 6 Calhoun County          NA            55290 
 7 Carroll County       35184            58942 
 8 Cass County          37679            46840.
 9 Champaign County     13989.           45604.
10 Christian County     36164            45945.
# … with 85 more rows

Looking good! To make things a bit more informative, let’s also show the difference in income between designated and not designated tracts:

Code

ozs |> 
  filter(state == "Illinois") |> 
  group_by(county, Designated) |> 
  summarise(
    Income = mean(medhhincome2014_tract, na.rm=TRUE)) |> pivot_wider(names_from = Designated, values_from = Income) |> 
  mutate(Difference = Designated - `Not Designated`)

# A tibble: 95 × 4
# Groups:   county [95]
   county           Designated `Not Designated` Difference
   <chr>                 <dbl>            <dbl>      <dbl>
 1 Adams County         26012            39614.    -13602.
 2 Alexander County     21500            32809     -11309 
 3 Bond County          49590            52310      -2720 
 4 Boone County         40599            45742      -5143 
 5 Bureau County        48083            60339.    -12256.
 6 Calhoun County          NA            55290         NA 
 7 Carroll County       35184            58942     -23758 
 8 Cass County          37679            46840.     -9162.
 9 Champaign County     13989.           45604.    -31615.
10 Christian County     36164            45945.     -9781.
# … with 85 more rows
…
