Neighborhood Analysis - Place Opportunity
…
\(z = \frac{x-\mu}{\sigma}\) where: \(x\) is the individual observation we want to standardize \(\mu\) is the population mean \(\sigma\) is the population standard deviation

Find the mean and standard deviation for a variable in our dataset and manually calculate a z-score (just for fun).

Code

dataset |> 
  summarise(
  under18_mean = mean(under18, na.rm=TRUE), 
  under18_sd = sd(under18, na.rm=TRUE),
  z_under18 = (under18 - under18_mean)/under18_sd
  )

# A tibble: 2,327 × 3
   under18_mean under18_sd z_under18
          <dbl>      <dbl>     <dbl>
 1        0.205     0.0773   0.960  
 2        0.205     0.0773   1.98   
 3        0.205     0.0773   0.572  
 4        0.205     0.0773  -0.254  
 5        0.205     0.0773   0.980  
 6        0.205     0.0773   0.706  
 7        0.205     0.0773  -0.253  
 8        0.205     0.0773   0.865  
 9        0.205     0.0773  -0.00949
10        0.205     0.0773   0.539  
# … with 2,317 more rows

For the first observation, the value for Under 18 is 27.9 percent. The average value for tracts in Illinois is 27.9 percent, and the standard deviation is 7.73. The standardized score of .960 indicates that the observation is .96 of a standard deviation above the mean. There’s absolutely nothing wrong with doing this manually, however, we can use the scale() function to do the same thing:

Code

dataset |>  mutate(under18 = scale(under18))

# A tibble: 2,327 × 30
   GEOID      under1…¹ over65   Pop P_Fem…² PWhite PBlack   PAIAN PAsian PNonw…³
   <chr>         <dbl>  <dbl> <dbl>   <dbl>  <dbl>  <dbl>   <dbl>  <dbl>   <dbl>
 1 360470092…  0.960   0.0747  3453   0.514 0.296  0.0568 0.00782 0.300    0.704
 2 360470094…  1.98    0.0763  2293   0.515 0.0754 0.0754 0       0.690    0.925
 3 360470094…  0.572   0.0885  2746   0.548 0.172  0.0138 0       0.695    0.828
 4 360470096… -0.254   0.132   5858   0.570 0.362  0.0446 0.00751 0.340    0.638
 5 360470098…  0.980   0.0864  6021   0.498 0.153  0.0485 0       0.383    0.847
 6 360470100…  0.706   0.128   5978   0.541 0.264  0.0238 0.0110  0.423    0.736
 7 360470101… -0.253   0.0842  3944   0.508 0.510  0.0418 0.0327  0.0903   0.490
 8 360470102…  0.865   0.126   4844   0.515 0.124  0.0142 0       0.705    0.876
 9 360470104… -0.00949 0.125   2152   0.487 0.106  0.0279 0       0.838    0.894
10 360470104…  0.539   0.148   2256   0.523 0.0638 0      0       0.879    0.936
# … with 2,317 more rows, 20 more variables: PLatino <dbl>, PForeignborn <dbl>,
#   P_FHHH <dbl>, Pov <dbl>, MHHI <dbl>, Rvac <dbl>, P_Own <dbl>, MHV <dbl>,
#   CostBurden <dbl>, STUSAB <chr>, pct_transit_j2w <dbl>,
#   median_gross_rent <dbl>, pct_hu_1_detached <dbl>, job_density_simple <dbl>,
#   retail_density_simple <dbl>, median_commute <dbl>, CANCER <dbl>,
#   RESP <dbl>, PTRAF <dbl>, PM25 <dbl>, and abbreviated variable names
#   ¹​under18[,1], ²​P_Female, ³​PNonwhite
…
